(kicad_pcb (version 20171130) (host pcbnew 5.1.4)

  (general
    (thickness 1.6)
    (drawings 12)
    (tracks 31)
    (zones 0)
    (modules 20)
    (nets 6)
  )

  (page A4)
  (layers
    (0 F.Cu signal)
    (31 B.Cu signal)
    (32 B.Adhes user)
    (33 F.Adhes user)
    (34 B.Paste user)
    (35 F.Paste user)
    (36 B.SilkS user)
    (37 F.SilkS user)
    (38 B.Mask user)
    (39 F.Mask user)
    (40 Dwgs.User user)
    (41 Cmts.User user)
    (42 Eco1.User user)
    (43 Eco2.User user)
    (44 Edge.Cuts user)
    (45 Margin user)
    (46 B.CrtYd user hide)
    (47 F.CrtYd user hide)
    (48 B.Fab user hide)
    (49 F.Fab user hide)
  )

  (setup
    (last_trace_width 0.25)
    (user_trace_width 1)
    (trace_clearance 0.2)
    (zone_clearance 0.508)
    (zone_45_only no)
    (trace_min 0.2)
    (via_size 0.8)
    (via_drill 0.4)
    (via_min_size 0.4)
    (via_min_drill 0.3)
    (uvia_size 0.3)
    (uvia_drill 0.1)
    (uvias_allowed no)
    (uvia_min_size 0.2)
    (uvia_min_drill 0.1)
    (edge_width 0.05)
    (segment_width 0.2)
    (pcb_text_width 0.3)
    (pcb_text_size 1.5 1.5)
    (mod_edge_width 0.12)
    (mod_text_size 1 1)
    (mod_text_width 0.15)
    (pad_size 1.524 1.524)
    (pad_drill 0.762)
    (pad_to_mask_clearance 0.051)
    (solder_mask_min_width 0.25)
    (aux_axis_origin 0 0)
    (visible_elements FFFFFF7F)
    (pcbplotparams
      (layerselection 0x010fc_ffffffff)
      (usegerberextensions false)
      (usegerberattributes false)
      (usegerberadvancedattributes false)
      (creategerberjobfile false)
      (excludeedgelayer true)
      (linewidth 0.100000)
      (plotframeref false)
      (viasonmask false)
      (mode 1)
      (useauxorigin false)
      (hpglpennumber 1)
      (hpglpenspeed 20)
      (hpglpendiameter 15.000000)
      (psnegative false)
      (psa4output false)
      (plotreference true)
      (plotvalue true)
      (plotinvisibletext false)
      (padsonsilk false)
      (subtractmaskfromsilk false)
      (outputformat 1)
      (mirror false)
      (drillshape 1)
      (scaleselection 1)
      (outputdirectory ""))
  )

  (net 0 "")
  (net 1 /V_DEPLOY)
  (net 2 /GND_D)
  (net 3 /GND)
  (net 4 /DET_1)
  (net 5 /DET_2)

  (net_class Default "This is the default net class."
    (clearance 0.2)
    (trace_width 0.25)
    (via_dia 0.8)
    (via_drill 0.4)
    (uvia_dia 0.3)
    (uvia_drill 0.1)
    (add_net /DET_1)
    (add_net /DET_2)
    (add_net /GND)
    (add_net /GND_D)
    (add_net /V_DEPLOY)
  )

  (module lsf-kicad-lib:D2F-L30-A1 (layer F.Cu) (tedit 5DC15382) (tstamp 5DC080B9)
    (at 145 85)
    (path /5DC02FFF)
    (fp_text reference SW1 (at 5.6 2.75) (layer F.SilkS)
      (effects (font (size 1 1) (thickness 0.15)))
    )
    (fp_text value SW_SPDT (at 5.1 -2) (layer F.Fab)
      (effects (font (size 1 1) (thickness 0.15)))
    )
    (fp_line (start 11.5 -2.8) (end -1.3 -2.8) (layer F.SilkS) (width 0.1))
    (fp_line (start 11.5 -2.8) (end 11.5 1.4) (layer F.SilkS) (width 0.1))
    (fp_line (start 11.5 1.4) (end -1.3 1.4) (layer F.SilkS) (width 0.1))
    (fp_line (start -1.3 1.4) (end -1.3 -2.8) (layer F.SilkS) (width 0.1))
    (fp_line (start 11.5 -2.8) (end -1.3 -2.8) (layer F.Fab) (width 0.12))
    (fp_circle (center 1.85 -4.3) (end 0.85 -4.3) (layer F.Fab) (width 0.12))
    (fp_circle (center 8.35 -4.3) (end 7.35 -4.3) (layer F.Fab) (width 0.12))
    (fp_line (start 11.5 -7.8) (end -1.3 -7.8) (layer F.Fab) (width 0.12))
    (fp_line (start 11.5 -7.8) (end 11.5 -2.8) (layer F.Fab) (width 0.12))
    (fp_line (start -1.3 -7.8) (end -1.3 -2.8) (layer F.Fab) (width 0.12))
    (fp_arc (start 6.85 -7.8) (end 6.25 -7.8) (angle 180) (layer F.Fab) (width 0.12))
    (fp_line (start 11.5 -9) (end 1.5 -14) (layer F.Fab) (width 0.12))
    (fp_arc (start -0.409827 -14.776249) (end -2.409827 -15.276249) (angle 188.1) (layer F.Fab) (width 0.12))
    (fp_line (start 12 1.9) (end 12 -9.5) (layer F.CrtYd) (width 0.12))
    (fp_line (start 12 -9.5) (end 2 -14.5) (layer F.CrtYd) (width 0.12))
    (fp_line (start 2 -14.5) (end 2.5 -16.5) (layer F.CrtYd) (width 0.12))
    (fp_line (start 2.5 -16.5) (end -2.5 -18) (layer F.CrtYd) (width 0.12))
    (fp_line (start -2.5 -18) (end -4.5 -8.5) (layer F.CrtYd) (width 0.12))
    (fp_line (start -4.5 -8.5) (end -1.7 -7.8) (layer F.CrtYd) (width 0.12))
    (fp_line (start -1.7 -7.8) (end -1.7 1.9) (layer F.CrtYd) (width 0.12))
    (fp_line (start -1.7 1.9) (end 12 1.9) (layer F.CrtYd) (width 0.12))
    (pad 2 thru_hole circle (at 10.18 0) (size 2.5 2.5) (drill 1.2) (layers *.Cu *.Mask)
      (net 3 /GND))
    (pad 3 thru_hole circle (at 5.1 0) (size 2.5 2.5) (drill 1.2) (layers *.Cu *.Mask)
      (net 5 /DET_2))
    (pad 1 thru_hole circle (at 0.02 0) (size 2.5 2.5) (drill 1.2) (layers *.Cu *.Mask)
      (net 4 /DET_1))
    (model ${LSF_KICAD_LIB}/lsf-kicad-lib.3dshapes/D2F_L30_A1.step
      (offset (xyz 1.9 4.25 3))
      (scale (xyz 1 1 1))
      (rotate (xyz 0 180 0))
    )
  )

  (module MountingHole:MountingHole_2.2mm_M2_DIN965 (layer F.Cu) (tedit 56D1B4CB) (tstamp 5DC090CF)
    (at 193 147)
    (descr "Mounting Hole 2.2mm, no annular, M2, DIN965")
    (tags "mounting hole 2.2mm no annular m2 din965")
    (attr virtual)
    (fp_text reference REF** (at 0 -2.9) (layer F.SilkS) hide
      (effects (font (size 1 1) (thickness 0.15)))
    )
    (fp_text value MountingHole_2.2mm_M2_DIN965 (at 0 2.9) (layer F.Fab)
      (effects (font (size 1 1) (thickness 0.15)))
    )
    (fp_text user %R (at 0.3 0) (layer F.Fab)
      (effects (font (size 1 1) (thickness 0.15)))
    )
    (fp_circle (center 0 0) (end 1.9 0) (layer Cmts.User) (width 0.15))
    (fp_circle (center 0 0) (end 2.15 0) (layer F.CrtYd) (width 0.05))
    (pad 1 np_thru_hole circle (at 0 0) (size 2.2 2.2) (drill 2.2) (layers *.Cu *.Mask))
  )

  (module MountingHole:MountingHole_2.2mm_M2_DIN965 (layer F.Cu) (tedit 56D1B4CB) (tstamp 5DC090CF)
    (at 193 113)
    (descr "Mounting Hole 2.2mm, no annular, M2, DIN965")
    (tags "mounting hole 2.2mm no annular m2 din965")
    (attr virtual)
    (fp_text reference REF** (at 0 -2.9) (layer F.SilkS) hide
      (effects (font (size 1 1) (thickness 0.15)))
    )
    (fp_text value MountingHole_2.2mm_M2_DIN965 (at 0 2.9) (layer F.Fab)
      (effects (font (size 1 1) (thickness 0.15)))
    )
    (fp_text user %R (at 0.3 0) (layer F.Fab)
      (effects (font (size 1 1) (thickness 0.15)))
    )
    (fp_circle (center 0 0) (end 1.9 0) (layer Cmts.User) (width 0.15))
    (fp_circle (center 0 0) (end 2.15 0) (layer F.CrtYd) (width 0.05))
    (pad 1 np_thru_hole circle (at 0 0) (size 2.2 2.2) (drill 2.2) (layers *.Cu *.Mask))
  )

  (module MountingHole:MountingHole_2.2mm_M2_DIN965 (layer F.Cu) (tedit 56D1B4CB) (tstamp 5DC090CF)
    (at 160 113)
    (descr "Mounting Hole 2.2mm, no annular, M2, DIN965")
    (tags "mounting hole 2.2mm no annular m2 din965")
    (attr virtual)
    (fp_text reference REF** (at 0 -2.9) (layer F.SilkS) hide
      (effects (font (size 1 1) (thickness 0.15)))
    )
    (fp_text value MountingHole_2.2mm_M2_DIN965 (at 0 2.9) (layer F.Fab)
      (effects (font (size 1 1) (thickness 0.15)))
    )
    (fp_text user %R (at 0.3 0) (layer F.Fab)
      (effects (font (size 1 1) (thickness 0.15)))
    )
    (fp_circle (center 0 0) (end 1.9 0) (layer Cmts.User) (width 0.15))
    (fp_circle (center 0 0) (end 2.15 0) (layer F.CrtYd) (width 0.05))
    (pad 1 np_thru_hole circle (at 0 0) (size 2.2 2.2) (drill 2.2) (layers *.Cu *.Mask))
  )

  (module MountingHole:MountingHole_2.2mm_M2_DIN965 (layer F.Cu) (tedit 56D1B4CB) (tstamp 5DC090CF)
    (at 140 147)
    (descr "Mounting Hole 2.2mm, no annular, M2, DIN965")
    (tags "mounting hole 2.2mm no annular m2 din965")
    (attr virtual)
    (fp_text reference REF** (at 0 -2.9) (layer F.SilkS) hide
      (effects (font (size 1 1) (thickness 0.15)))
    )
    (fp_text value MountingHole_2.2mm_M2_DIN965 (at 0 2.9) (layer F.Fab)
      (effects (font (size 1 1) (thickness 0.15)))
    )
    (fp_text user %R (at 0.3 0) (layer F.Fab)
      (effects (font (size 1 1) (thickness 0.15)))
    )
    (fp_circle (center 0 0) (end 1.9 0) (layer Cmts.User) (width 0.15))
    (fp_circle (center 0 0) (end 2.15 0) (layer F.CrtYd) (width 0.05))
    (pad 1 np_thru_hole circle (at 0 0) (size 2.2 2.2) (drill 2.2) (layers *.Cu *.Mask))
  )

  (module MountingHole:MountingHole_2.2mm_M2_DIN965 (layer F.Cu) (tedit 56D1B4CB) (tstamp 5DC090CF)
    (at 140 80)
    (descr "Mounting Hole 2.2mm, no annular, M2, DIN965")
    (tags "mounting hole 2.2mm no annular m2 din965")
    (attr virtual)
    (fp_text reference REF** (at 0 -2.9) (layer F.SilkS) hide
      (effects (font (size 1 1) (thickness 0.15)))
    )
    (fp_text value MountingHole_2.2mm_M2_DIN965 (at 0 2.9) (layer F.Fab)
      (effects (font (size 1 1) (thickness 0.15)))
    )
    (fp_text user %R (at 0.3 0) (layer F.Fab)
      (effects (font (size 1 1) (thickness 0.15)))
    )
    (fp_circle (center 0 0) (end 1.9 0) (layer Cmts.User) (width 0.15))
    (fp_circle (center 0 0) (end 2.15 0) (layer F.CrtYd) (width 0.05))
    (pad 1 np_thru_hole circle (at 0 0) (size 2.2 2.2) (drill 2.2) (layers *.Cu *.Mask))
  )

  (module MountingHole:MountingHole_2.2mm_M2_DIN965 (layer F.Cu) (tedit 56D1B4CB) (tstamp 5DC090BE)
    (at 160 80)
    (descr "Mounting Hole 2.2mm, no annular, M2, DIN965")
    (tags "mounting hole 2.2mm no annular m2 din965")
    (attr virtual)
    (fp_text reference REF** (at 0 -2.9) (layer F.SilkS) hide
      (effects (font (size 1 1) (thickness 0.15)))
    )
    (fp_text value MountingHole_2.2mm_M2_DIN965 (at 0 2.9) (layer F.Fab)
      (effects (font (size 1 1) (thickness 0.15)))
    )
    (fp_circle (center 0 0) (end 2.15 0) (layer F.CrtYd) (width 0.05))
    (fp_circle (center 0 0) (end 1.9 0) (layer Cmts.User) (width 0.15))
    (fp_text user %R (at 0.3 0) (layer F.Fab)
      (effects (font (size 1 1) (thickness 0.15)))
    )
    (pad 1 np_thru_hole circle (at 0 0) (size 2.2 2.2) (drill 2.2) (layers *.Cu *.Mask))
  )

  (module lsf-kicad-lib:KEYSTONE-1502-2 (layer F.Cu) (tedit 5DC0341D) (tstamp 5DC07042)
    (at 160 123)
    (descr KSTN-1502-2)
    (path /5DC00F6A)
    (fp_text reference J8 (at -1.25 -2.75) (layer F.SilkS)
      (effects (font (size 0.787402 0.787402) (thickness 0.05)))
    )
    (fp_text value Screw_Terminal_01x01 (at 0 0) (layer F.SilkS) hide
      (effects (font (size 1 0.9) (thickness 0.05)))
    )
    (fp_line (start -2.25 2.25) (end -2.25 -2.25) (layer Eco1.User) (width 0.1))
    (fp_line (start -2.25 -2.25) (end 2.25 -2.25) (layer Eco1.User) (width 0.1))
    (fp_line (start 2.25 -2.25) (end 2.25 2.25) (layer Eco1.User) (width 0.1))
    (fp_line (start 2.25 2.25) (end -2.25 2.25) (layer Eco1.User) (width 0.1))
    (fp_circle (center 0 0) (end 1.95 0) (layer F.SilkS) (width 0.2))
    (fp_circle (center 0 0) (end 1.59 0) (layer Eco2.User) (width 0.1))
    (pad 1 thru_hole circle (at 0 0) (size 3.1 3.1) (drill 2.6) (layers *.Cu *.Mask)
      (net 1 /V_DEPLOY))
    (model ${LSF_KICAD_LIB}/lsf-kicad-lib.3dshapes/KEYSTONE-1502-2.step
      (at (xyz 0 0 0))
      (scale (xyz 1 1 1))
      (rotate (xyz 0 0 0))
    )
  )

  (module lsf-kicad-lib:KEYSTONE-7698 (layer F.Cu) (tedit 5DC033D1) (tstamp 5DC07462)
    (at 185 141 90)
    (path /5DC1C079)
    (fp_text reference J4 (at 0 0.5 90) (layer F.SilkS)
      (effects (font (size 1 1) (thickness 0.15)))
    )
    (fp_text value Screw_Terminal_01x01 (at 0 -0.5 90) (layer F.Fab)
      (effects (font (size 1 1) (thickness 0.15)))
    )
    (fp_line (start -5 -5) (end 5 -5) (layer F.SilkS) (width 0.12))
    (fp_line (start -5 5) (end -5 -5) (layer F.SilkS) (width 0.12))
    (fp_line (start 5 5) (end -5 5) (layer F.SilkS) (width 0.12))
    (fp_line (start 5 -5) (end 5 5) (layer F.SilkS) (width 0.12))
    (pad 1 thru_hole circle (at -2.5 3.5 90) (size 2.5 2.5) (drill 1.85) (layers *.Cu *.Mask)
      (net 2 /GND_D))
    (pad 1 thru_hole circle (at 2.5 3.5 90) (size 2.5 2.5) (drill 1.85) (layers *.Cu *.Mask)
      (net 2 /GND_D))
    (pad 1 thru_hole circle (at 2.5 -3.5 90) (size 2.5 2.5) (drill 1.85) (layers *.Cu *.Mask)
      (net 2 /GND_D))
    (pad 1 thru_hole circle (at -2.5 -3.5 90) (size 2.5 2.5) (drill 1.85) (layers *.Cu *.Mask)
      (net 2 /GND_D))
    (model ${LSF_KICAD_LIB}/lsf-kicad-lib.3dshapes/KEYSTONE-7698.step
      (offset (xyz 0 0 6.5))
      (scale (xyz 1 1 1))
      (rotate (xyz 0 0 90))
    )
  )

  (module lsf-kicad-lib:KEYSTONE-7698 (layer F.Cu) (tedit 5DC033D1) (tstamp 5DC073FF)
    (at 185 130 90)
    (path /5DC1C07F)
    (fp_text reference J3 (at 0 0.5 90) (layer F.SilkS)
      (effects (font (size 1 1) (thickness 0.15)))
    )
    (fp_text value Screw_Terminal_01x01 (at 0 -0.5 90) (layer F.Fab)
      (effects (font (size 1 1) (thickness 0.15)))
    )
    (fp_line (start -5 -5) (end 5 -5) (layer F.SilkS) (width 0.12))
    (fp_line (start -5 5) (end -5 -5) (layer F.SilkS) (width 0.12))
    (fp_line (start 5 5) (end -5 5) (layer F.SilkS) (width 0.12))
    (fp_line (start 5 -5) (end 5 5) (layer F.SilkS) (width 0.12))
    (pad 1 thru_hole circle (at -2.5 3.5 90) (size 2.5 2.5) (drill 1.85) (layers *.Cu *.Mask)
      (net 1 /V_DEPLOY))
    (pad 1 thru_hole circle (at 2.5 3.5 90) (size 2.5 2.5) (drill 1.85) (layers *.Cu *.Mask)
      (net 1 /V_DEPLOY))
    (pad 1 thru_hole circle (at 2.5 -3.5 90) (size 2.5 2.5) (drill 1.85) (layers *.Cu *.Mask)
      (net 1 /V_DEPLOY))
    (pad 1 thru_hole circle (at -2.5 -3.5 90) (size 2.5 2.5) (drill 1.85) (layers *.Cu *.Mask)
      (net 1 /V_DEPLOY))
    (model ${LSF_KICAD_LIB}/lsf-kicad-lib.3dshapes/KEYSTONE-7698.step
      (offset (xyz 0 0 6.5))
      (scale (xyz 1 1 1))
      (rotate (xyz 0 0 90))
    )
  )

  (module lsf-kicad-lib:KEYSTONE-7698 (layer F.Cu) (tedit 5DC033D1) (tstamp 5DC07441)
    (at 185 119)
    (path /5DC17B73)
    (fp_text reference J2 (at 0 0.5) (layer F.SilkS)
      (effects (font (size 1 1) (thickness 0.15)))
    )
    (fp_text value Screw_Terminal_01x01 (at 0 -0.5) (layer F.Fab)
      (effects (font (size 1 1) (thickness 0.15)))
    )
    (fp_line (start -5 -5) (end 5 -5) (layer F.SilkS) (width 0.12))
    (fp_line (start -5 5) (end -5 -5) (layer F.SilkS) (width 0.12))
    (fp_line (start 5 5) (end -5 5) (layer F.SilkS) (width 0.12))
    (fp_line (start 5 -5) (end 5 5) (layer F.SilkS) (width 0.12))
    (pad 1 thru_hole circle (at -2.5 3.5) (size 2.5 2.5) (drill 1.85) (layers *.Cu *.Mask)
      (net 2 /GND_D))
    (pad 1 thru_hole circle (at 2.5 3.5) (size 2.5 2.5) (drill 1.85) (layers *.Cu *.Mask)
      (net 2 /GND_D))
    (pad 1 thru_hole circle (at 2.5 -3.5) (size 2.5 2.5) (drill 1.85) (layers *.Cu *.Mask)
      (net 2 /GND_D))
    (pad 1 thru_hole circle (at -2.5 -3.5) (size 2.5 2.5) (drill 1.85) (layers *.Cu *.Mask)
      (net 2 /GND_D))
    (model ${LSF_KICAD_LIB}/lsf-kicad-lib.3dshapes/KEYSTONE-7698.step
      (offset (xyz 0 0 6.5))
      (scale (xyz 1 1 1))
      (rotate (xyz 0 0 90))
    )
  )

  (module lsf-kicad-lib:KEYSTONE-7698 (layer F.Cu) (tedit 5DC033D1) (tstamp 5DC07420)
    (at 174 119)
    (path /5DC17FF5)
    (fp_text reference J1 (at 0 0.5) (layer F.SilkS)
      (effects (font (size 1 1) (thickness 0.15)))
    )
    (fp_text value Screw_Terminal_01x01 (at 0 -0.5) (layer F.Fab)
      (effects (font (size 1 1) (thickness 0.15)))
    )
    (fp_line (start -5 -5) (end 5 -5) (layer F.SilkS) (width 0.12))
    (fp_line (start -5 5) (end -5 -5) (layer F.SilkS) (width 0.12))
    (fp_line (start 5 5) (end -5 5) (layer F.SilkS) (width 0.12))
    (fp_line (start 5 -5) (end 5 5) (layer F.SilkS) (width 0.12))
    (pad 1 thru_hole circle (at -2.5 3.5) (size 2.5 2.5) (drill 1.85) (layers *.Cu *.Mask)
      (net 1 /V_DEPLOY))
    (pad 1 thru_hole circle (at 2.5 3.5) (size 2.5 2.5) (drill 1.85) (layers *.Cu *.Mask)
      (net 1 /V_DEPLOY))
    (pad 1 thru_hole circle (at 2.5 -3.5) (size 2.5 2.5) (drill 1.85) (layers *.Cu *.Mask)
      (net 1 /V_DEPLOY))
    (pad 1 thru_hole circle (at -2.5 -3.5) (size 2.5 2.5) (drill 1.85) (layers *.Cu *.Mask)
      (net 1 /V_DEPLOY))
    (model ${LSF_KICAD_LIB}/lsf-kicad-lib.3dshapes/KEYSTONE-7698.step
      (offset (xyz 0 0 6.5))
      (scale (xyz 1 1 1))
      (rotate (xyz 0 0 90))
    )
  )

  (module lsf-kicad-lib:KEYSTONE-1502-2 (layer F.Cu) (tedit 5DC0341D) (tstamp 5DC07079)
    (at 160 140)
    (descr KSTN-1502-2)
    (path /5DC02B23)
    (fp_text reference J13 (at -1.25 -2.75) (layer F.SilkS)
      (effects (font (size 0.787402 0.787402) (thickness 0.05)))
    )
    (fp_text value Screw_Terminal_01x01 (at 0 0) (layer F.SilkS) hide
      (effects (font (size 1 0.9) (thickness 0.05)))
    )
    (fp_line (start -2.25 2.25) (end -2.25 -2.25) (layer Eco1.User) (width 0.1))
    (fp_line (start -2.25 -2.25) (end 2.25 -2.25) (layer Eco1.User) (width 0.1))
    (fp_line (start 2.25 -2.25) (end 2.25 2.25) (layer Eco1.User) (width 0.1))
    (fp_line (start 2.25 2.25) (end -2.25 2.25) (layer Eco1.User) (width 0.1))
    (fp_circle (center 0 0) (end 1.95 0) (layer F.SilkS) (width 0.2))
    (fp_circle (center 0 0) (end 1.59 0) (layer Eco2.User) (width 0.1))
    (pad 1 thru_hole circle (at 0 0) (size 3.1 3.1) (drill 2.6) (layers *.Cu *.Mask)
      (net 2 /GND_D))
    (model ${LSF_KICAD_LIB}/lsf-kicad-lib.3dshapes/KEYSTONE-1502-2.step
      (at (xyz 0 0 0))
      (scale (xyz 1 1 1))
      (rotate (xyz 0 0 0))
    )
  )

  (module lsf-kicad-lib:KEYSTONE-1502-2 (layer F.Cu) (tedit 5DC0341D) (tstamp 5DC0706E)
    (at 155 145)
    (descr KSTN-1502-2)
    (path /5DC02B1D)
    (fp_text reference J12 (at -1.25 -2.75) (layer F.SilkS)
      (effects (font (size 0.787402 0.787402) (thickness 0.05)))
    )
    (fp_text value Screw_Terminal_01x01 (at 0 0) (layer F.SilkS) hide
      (effects (font (size 1 0.9) (thickness 0.05)))
    )
    (fp_line (start -2.25 2.25) (end -2.25 -2.25) (layer Eco1.User) (width 0.1))
    (fp_line (start -2.25 -2.25) (end 2.25 -2.25) (layer Eco1.User) (width 0.1))
    (fp_line (start 2.25 -2.25) (end 2.25 2.25) (layer Eco1.User) (width 0.1))
    (fp_line (start 2.25 2.25) (end -2.25 2.25) (layer Eco1.User) (width 0.1))
    (fp_circle (center 0 0) (end 1.95 0) (layer F.SilkS) (width 0.2))
    (fp_circle (center 0 0) (end 1.59 0) (layer Eco2.User) (width 0.1))
    (pad 1 thru_hole circle (at 0 0) (size 3.1 3.1) (drill 2.6) (layers *.Cu *.Mask)
      (net 2 /GND_D))
    (model ${LSF_KICAD_LIB}/lsf-kicad-lib.3dshapes/KEYSTONE-1502-2.step
      (at (xyz 0 0 0))
      (scale (xyz 1 1 1))
      (rotate (xyz 0 0 0))
    )
  )

  (module lsf-kicad-lib:KEYSTONE-1502-2 (layer F.Cu) (tedit 5DC0341D) (tstamp 5DC07063)
    (at 165 135)
    (descr KSTN-1502-2)
    (path /5DC02B17)
    (fp_text reference J11 (at -1.25 -2.75) (layer F.SilkS)
      (effects (font (size 0.787402 0.787402) (thickness 0.05)))
    )
    (fp_text value Screw_Terminal_01x01 (at 0 0) (layer F.SilkS) hide
      (effects (font (size 1 0.9) (thickness 0.05)))
    )
    (fp_line (start -2.25 2.25) (end -2.25 -2.25) (layer Eco1.User) (width 0.1))
    (fp_line (start -2.25 -2.25) (end 2.25 -2.25) (layer Eco1.User) (width 0.1))
    (fp_line (start 2.25 -2.25) (end 2.25 2.25) (layer Eco1.User) (width 0.1))
    (fp_line (start 2.25 2.25) (end -2.25 2.25) (layer Eco1.User) (width 0.1))
    (fp_circle (center 0 0) (end 1.95 0) (layer F.SilkS) (width 0.2))
    (fp_circle (center 0 0) (end 1.59 0) (layer Eco2.User) (width 0.1))
    (pad 1 thru_hole circle (at 0 0) (size 3.1 3.1) (drill 2.6) (layers *.Cu *.Mask)
      (net 2 /GND_D))
    (model ${LSF_KICAD_LIB}/lsf-kicad-lib.3dshapes/KEYSTONE-1502-2.step
      (at (xyz 0 0 0))
      (scale (xyz 1 1 1))
      (rotate (xyz 0 0 0))
    )
  )

  (module lsf-kicad-lib:KEYSTONE-1502-2 (layer F.Cu) (tedit 5DC0341D) (tstamp 5DC07058)
    (at 165 128)
    (descr KSTN-1502-2)
    (path /5DC02B11)
    (fp_text reference J10 (at -1.25 -2.75) (layer F.SilkS)
      (effects (font (size 0.787402 0.787402) (thickness 0.05)))
    )
    (fp_text value Screw_Terminal_01x01 (at 0 0) (layer F.SilkS) hide
      (effects (font (size 1 0.9) (thickness 0.05)))
    )
    (fp_line (start -2.25 2.25) (end -2.25 -2.25) (layer Eco1.User) (width 0.1))
    (fp_line (start -2.25 -2.25) (end 2.25 -2.25) (layer Eco1.User) (width 0.1))
    (fp_line (start 2.25 -2.25) (end 2.25 2.25) (layer Eco1.User) (width 0.1))
    (fp_line (start 2.25 2.25) (end -2.25 2.25) (layer Eco1.User) (width 0.1))
    (fp_circle (center 0 0) (end 1.95 0) (layer F.SilkS) (width 0.2))
    (fp_circle (center 0 0) (end 1.59 0) (layer Eco2.User) (width 0.1))
    (pad 1 thru_hole circle (at 0 0) (size 3.1 3.1) (drill 2.6) (layers *.Cu *.Mask)
      (net 1 /V_DEPLOY))
    (model ${LSF_KICAD_LIB}/lsf-kicad-lib.3dshapes/KEYSTONE-1502-2.step
      (at (xyz 0 0 0))
      (scale (xyz 1 1 1))
      (rotate (xyz 0 0 0))
    )
  )

  (module lsf-kicad-lib:KEYSTONE-1502-2 (layer F.Cu) (tedit 5DC0341D) (tstamp 5DC0704D)
    (at 155 118)
    (descr KSTN-1502-2)
    (path /5DC0120D)
    (fp_text reference J9 (at -1.25 -2.75) (layer F.SilkS)
      (effects (font (size 0.787402 0.787402) (thickness 0.05)))
    )
    (fp_text value Screw_Terminal_01x01 (at 0 0) (layer F.SilkS) hide
      (effects (font (size 1 0.9) (thickness 0.05)))
    )
    (fp_line (start -2.25 2.25) (end -2.25 -2.25) (layer Eco1.User) (width 0.1))
    (fp_line (start -2.25 -2.25) (end 2.25 -2.25) (layer Eco1.User) (width 0.1))
    (fp_line (start 2.25 -2.25) (end 2.25 2.25) (layer Eco1.User) (width 0.1))
    (fp_line (start 2.25 2.25) (end -2.25 2.25) (layer Eco1.User) (width 0.1))
    (fp_circle (center 0 0) (end 1.95 0) (layer F.SilkS) (width 0.2))
    (fp_circle (center 0 0) (end 1.59 0) (layer Eco2.User) (width 0.1))
    (pad 1 thru_hole circle (at 0 0) (size 3.1 3.1) (drill 2.6) (layers *.Cu *.Mask)
      (net 1 /V_DEPLOY))
    (model ${LSF_KICAD_LIB}/lsf-kicad-lib.3dshapes/KEYSTONE-1502-2.step
      (at (xyz 0 0 0))
      (scale (xyz 1 1 1))
      (rotate (xyz 0 0 0))
    )
  )

  (module lsf-kicad-lib:KEYSTONE-1502-2 (layer F.Cu) (tedit 5DC0341D) (tstamp 5DC07037)
    (at 148 100)
    (descr KSTN-1502-2)
    (path /5DC00BF8)
    (fp_text reference J7 (at -1.25 -2.75) (layer F.SilkS)
      (effects (font (size 0.787402 0.787402) (thickness 0.05)))
    )
    (fp_text value Screw_Terminal_01x01 (at 0 0) (layer F.SilkS) hide
      (effects (font (size 1 0.9) (thickness 0.05)))
    )
    (fp_line (start -2.25 2.25) (end -2.25 -2.25) (layer Eco1.User) (width 0.1))
    (fp_line (start -2.25 -2.25) (end 2.25 -2.25) (layer Eco1.User) (width 0.1))
    (fp_line (start 2.25 -2.25) (end 2.25 2.25) (layer Eco1.User) (width 0.1))
    (fp_line (start 2.25 2.25) (end -2.25 2.25) (layer Eco1.User) (width 0.1))
    (fp_circle (center 0 0) (end 1.95 0) (layer F.SilkS) (width 0.2))
    (fp_circle (center 0 0) (end 1.59 0) (layer Eco2.User) (width 0.1))
    (pad 1 thru_hole circle (at 0 0) (size 3.1 3.1) (drill 2.6) (layers *.Cu *.Mask)
      (net 5 /DET_2))
    (model ${LSF_KICAD_LIB}/lsf-kicad-lib.3dshapes/KEYSTONE-1502-2.step
      (at (xyz 0 0 0))
      (scale (xyz 1 1 1))
      (rotate (xyz 0 0 0))
    )
  )

  (module lsf-kicad-lib:KEYSTONE-1502-2 (layer F.Cu) (tedit 5DC0341D) (tstamp 5DC0702C)
    (at 143 105)
    (descr KSTN-1502-2)
    (path /5DC00368)
    (fp_text reference J6 (at -1.25 -2.75) (layer F.SilkS)
      (effects (font (size 0.787402 0.787402) (thickness 0.05)))
    )
    (fp_text value Screw_Terminal_01x01 (at 0 0) (layer F.SilkS) hide
      (effects (font (size 1 0.9) (thickness 0.05)))
    )
    (fp_line (start -2.25 2.25) (end -2.25 -2.25) (layer Eco1.User) (width 0.1))
    (fp_line (start -2.25 -2.25) (end 2.25 -2.25) (layer Eco1.User) (width 0.1))
    (fp_line (start 2.25 -2.25) (end 2.25 2.25) (layer Eco1.User) (width 0.1))
    (fp_line (start 2.25 2.25) (end -2.25 2.25) (layer Eco1.User) (width 0.1))
    (fp_circle (center 0 0) (end 1.95 0) (layer F.SilkS) (width 0.2))
    (fp_circle (center 0 0) (end 1.59 0) (layer Eco2.User) (width 0.1))
    (pad 1 thru_hole circle (at 0 0) (size 3.1 3.1) (drill 2.6) (layers *.Cu *.Mask)
      (net 4 /DET_1))
    (model ${LSF_KICAD_LIB}/lsf-kicad-lib.3dshapes/KEYSTONE-1502-2.step
      (at (xyz 0 0 0))
      (scale (xyz 1 1 1))
      (rotate (xyz 0 0 0))
    )
  )

  (module lsf-kicad-lib:KEYSTONE-1502-2 (layer F.Cu) (tedit 5DC0341D) (tstamp 5DC07021)
    (at 153 95)
    (descr KSTN-1502-2)
    (path /5DC00D40)
    (fp_text reference J5 (at -1.25 -2.75) (layer F.SilkS)
      (effects (font (size 0.787402 0.787402) (thickness 0.05)))
    )
    (fp_text value Screw_Terminal_01x01 (at 0 0) (layer F.SilkS) hide
      (effects (font (size 1 0.9) (thickness 0.05)))
    )
    (fp_line (start -2.25 2.25) (end -2.25 -2.25) (layer Eco1.User) (width 0.1))
    (fp_line (start -2.25 -2.25) (end 2.25 -2.25) (layer Eco1.User) (width 0.1))
    (fp_line (start 2.25 -2.25) (end 2.25 2.25) (layer Eco1.User) (width 0.1))
    (fp_line (start 2.25 2.25) (end -2.25 2.25) (layer Eco1.User) (width 0.1))
    (fp_circle (center 0 0) (end 1.95 0) (layer F.SilkS) (width 0.2))
    (fp_circle (center 0 0) (end 1.59 0) (layer Eco2.User) (width 0.1))
    (pad 1 thru_hole circle (at 0 0) (size 3.1 3.1) (drill 2.6) (layers *.Cu *.Mask)
      (net 3 /GND))
    (model ${LSF_KICAD_LIB}/lsf-kicad-lib.3dshapes/KEYSTONE-1502-2.step
      (at (xyz 0 0 0))
      (scale (xyz 1 1 1))
      (rotate (xyz 0 0 0))
    )
  )

  (gr_arc (start 140 147) (end 137 147) (angle -90) (layer Edge.Cuts) (width 0.05))
  (gr_arc (start 193 147) (end 193 150) (angle -90) (layer Edge.Cuts) (width 0.05))
  (gr_arc (start 140 80) (end 140 77) (angle -90) (layer Edge.Cuts) (width 0.05))
  (gr_arc (start 160 80) (end 163 80) (angle -90) (layer Edge.Cuts) (width 0.05))
  (gr_arc (start 193 113) (end 196 113) (angle -90) (layer Edge.Cuts) (width 0.05))
  (gr_arc (start 167 106) (end 163 106) (angle -90) (layer Edge.Cuts) (width 0.05))
  (gr_line (start 167 110) (end 193 110) (layer Edge.Cuts) (width 0.05))
  (gr_line (start 163 80) (end 163 106) (layer Edge.Cuts) (width 0.05))
  (gr_line (start 137 80) (end 137 147) (layer Edge.Cuts) (width 0.05) (tstamp 5DC071AD))
  (gr_line (start 160 77) (end 140 77) (layer Edge.Cuts) (width 0.05))
  (gr_line (start 196 147) (end 196 113) (layer Edge.Cuts) (width 0.05))
  (gr_line (start 140 150) (end 193 150) (layer Edge.Cuts) (width 0.05))

  (segment (start 155 118) (end 160 123) (width 1) (layer F.Cu) (net 1))
  (segment (start 160 123) (end 165 128) (width 1) (layer F.Cu) (net 1))
  (segment (start 166 128) (end 171.5 122.5) (width 1) (layer F.Cu) (net 1))
  (segment (start 165 128) (end 166 128) (width 1) (layer F.Cu) (net 1))
  (segment (start 171.5 122.5) (end 171.5 115.5) (width 1) (layer F.Cu) (net 1))
  (segment (start 171.5 122.5) (end 176.5 122.5) (width 1) (layer F.Cu) (net 1))
  (segment (start 176.5 122.5) (end 176.5 115.5) (width 1) (layer F.Cu) (net 1))
  (segment (start 181.5 127.5) (end 181.5 132.5) (width 1) (layer F.Cu) (net 1))
  (segment (start 181.5 127.5) (end 188.5 127.5) (width 1) (layer F.Cu) (net 1))
  (segment (start 181.5 132.5) (end 188.5 132.5) (width 1) (layer F.Cu) (net 1))
  (segment (start 169.5 132.5) (end 181.5 132.5) (width 1) (layer F.Cu) (net 1))
  (segment (start 165 128) (end 169.5 132.5) (width 1) (layer F.Cu) (net 1))
  (segment (start 155 145) (end 160 140) (width 1) (layer F.Cu) (net 2))
  (segment (start 160 140) (end 165 135) (width 1) (layer F.Cu) (net 2))
  (segment (start 178 135) (end 181.5 138.5) (width 1) (layer F.Cu) (net 2))
  (segment (start 165 135) (end 178 135) (width 1) (layer F.Cu) (net 2))
  (segment (start 181.5 138.5) (end 181.5 143.5) (width 1) (layer F.Cu) (net 2))
  (segment (start 181.5 143.5) (end 188.5 143.5) (width 1) (layer F.Cu) (net 2))
  (segment (start 181.5 138.5) (end 188.5 138.5) (width 1) (layer F.Cu) (net 2))
  (segment (start 187.5 122.5) (end 182.5 122.5) (width 1) (layer F.Cu) (net 2))
  (segment (start 187.5 122.5) (end 187.5 115.5) (width 1) (layer F.Cu) (net 2))
  (segment (start 182.5 122.5) (end 182.5 115.5) (width 1) (layer F.Cu) (net 2))
  (segment (start 188.5 138.5) (end 192.38 134.62) (width 1) (layer F.Cu) (net 2))
  (segment (start 188.54 122.5) (end 187.5 122.5) (width 1) (layer F.Cu) (net 2))
  (segment (start 192.38 126.34) (end 188.54 122.5) (width 1) (layer F.Cu) (net 2))
  (segment (start 192.38 134.62) (end 192.38 126.34) (width 1) (layer F.Cu) (net 2))
  (segment (start 153 87.18) (end 155.18 85) (width 1) (layer F.Cu) (net 3))
  (segment (start 143 87.02) (end 145.02 85) (width 1) (layer F.Cu) (net 4))
  (segment (start 143 105) (end 143 87.02) (width 1) (layer F.Cu) (net 4))
  (segment (start 148 87.1) (end 150.1 85) (width 1) (layer F.Cu) (net 5))
  (segment (start 148 100) (end 148 87.1) (width 1) (layer F.Cu) (net 5))

  (zone (net 3) (net_name /GND) (layer F.Cu) (tstamp 0) (hatch edge 0.508)
    (connect_pads (clearance 0.508))
    (min_thickness 0.254)
    (fill yes (arc_segments 32) (thermal_gap 0.508) (thermal_bridge_width 0.508))
    (polygon
      (pts
        (xy 137 77) (xy 164 77) (xy 164 108) (xy 137 108)
      )
    )
    (filled_polygon
      (pts
        (xy 160.453893 77.70767) (xy 160.890498 77.839489) (xy 161.293185 78.0536) (xy 161.646612 78.341848) (xy 161.937327 78.693261)
        (xy 162.154242 79.094439) (xy 162.289106 79.530113) (xy 162.34 80.014344) (xy 162.340001 106.032419) (xy 162.342988 106.062744)
        (xy 162.342813 106.087743) (xy 162.343713 106.096914) (xy 162.425315 106.873302) (xy 162.437338 106.931871) (xy 162.448551 106.990657)
        (xy 162.451215 106.999479) (xy 162.682063 107.745229) (xy 162.705238 107.800359) (xy 162.727652 107.855838) (xy 162.731979 107.863974)
        (xy 162.736859 107.873) (xy 137.66 107.873) (xy 137.66 104.784796) (xy 140.815 104.784796) (xy 140.815 105.215204)
        (xy 140.898969 105.637341) (xy 141.063678 106.034985) (xy 141.3028 106.392856) (xy 141.607144 106.6972) (xy 141.965015 106.936322)
        (xy 142.362659 107.101031) (xy 142.784796 107.185) (xy 143.215204 107.185) (xy 143.637341 107.101031) (xy 144.034985 106.936322)
        (xy 144.392856 106.6972) (xy 144.6972 106.392856) (xy 144.936322 106.034985) (xy 145.101031 105.637341) (xy 145.185 105.215204)
        (xy 145.185 104.784796) (xy 145.101031 104.362659) (xy 144.936322 103.965015) (xy 144.6972 103.607144) (xy 144.392856 103.3028)
        (xy 144.135 103.130506) (xy 144.135 99.784796) (xy 145.815 99.784796) (xy 145.815 100.215204) (xy 145.898969 100.637341)
        (xy 146.063678 101.034985) (xy 146.3028 101.392856) (xy 146.607144 101.6972) (xy 146.965015 101.936322) (xy 147.362659 102.101031)
        (xy 147.784796 102.185) (xy 148.215204 102.185) (xy 148.637341 102.101031) (xy 149.034985 101.936322) (xy 149.392856 101.6972)
        (xy 149.6972 101.392856) (xy 149.936322 101.034985) (xy 150.101031 100.637341) (xy 150.185 100.215204) (xy 150.185 99.784796)
        (xy 150.101031 99.362659) (xy 149.936322 98.965015) (xy 149.6972 98.607144) (xy 149.392856 98.3028) (xy 149.135 98.130506)
        (xy 149.135 96.527251) (xy 151.652354 96.527251) (xy 151.814381 96.84793) (xy 152.197675 97.043725) (xy 152.611803 97.160981)
        (xy 153.040848 97.195192) (xy 153.468324 97.145042) (xy 153.877802 97.012461) (xy 154.185619 96.84793) (xy 154.347646 96.527251)
        (xy 153 95.179605) (xy 151.652354 96.527251) (xy 149.135 96.527251) (xy 149.135 95.040848) (xy 150.804808 95.040848)
        (xy 150.854958 95.468324) (xy 150.987539 95.877802) (xy 151.15207 96.185619) (xy 151.472749 96.347646) (xy 152.820395 95)
        (xy 153.179605 95) (xy 154.527251 96.347646) (xy 154.84793 96.185619) (xy 155.043725 95.802325) (xy 155.160981 95.388197)
        (xy 155.195192 94.959152) (xy 155.145042 94.531676) (xy 155.012461 94.122198) (xy 154.84793 93.814381) (xy 154.527251 93.652354)
        (xy 153.179605 95) (xy 152.820395 95) (xy 151.472749 93.652354) (xy 151.15207 93.814381) (xy 150.956275 94.197675)
        (xy 150.839019 94.611803) (xy 150.804808 95.040848) (xy 149.135 95.040848) (xy 149.135 93.472749) (xy 151.652354 93.472749)
        (xy 153 94.820395) (xy 154.347646 93.472749) (xy 154.185619 93.15207) (xy 153.802325 92.956275) (xy 153.388197 92.839019)
        (xy 152.959152 92.804808) (xy 152.531676 92.854958) (xy 152.122198 92.987539) (xy 151.814381 93.15207) (xy 151.652354 93.472749)
        (xy 149.135 93.472749) (xy 149.135 87.570131) (xy 149.835762 86.869369) (xy 149.914344 86.885) (xy 150.285656 86.885)
        (xy 150.649834 86.812561) (xy 150.992882 86.670466) (xy 151.301618 86.464175) (xy 151.452188 86.313605) (xy 154.046 86.313605)
        (xy 154.171914 86.603577) (xy 154.504126 86.769433) (xy 154.862312 86.86729) (xy 155.232706 86.893389) (xy 155.601075 86.846725)
        (xy 155.953262 86.729094) (xy 156.188086 86.603577) (xy 156.314 86.313605) (xy 155.18 85.179605) (xy 154.046 86.313605)
        (xy 151.452188 86.313605) (xy 151.564175 86.201618) (xy 151.770466 85.892882) (xy 151.912561 85.549834) (xy 151.985 85.185656)
        (xy 151.985 85.052706) (xy 153.286611 85.052706) (xy 153.333275 85.421075) (xy 153.450906 85.773262) (xy 153.576423 86.008086)
        (xy 153.866395 86.134) (xy 155.000395 85) (xy 155.359605 85) (xy 156.493605 86.134) (xy 156.783577 86.008086)
        (xy 156.949433 85.675874) (xy 157.04729 85.317688) (xy 157.073389 84.947294) (xy 157.026725 84.578925) (xy 156.909094 84.226738)
        (xy 156.783577 83.991914) (xy 156.493605 83.866) (xy 155.359605 85) (xy 155.000395 85) (xy 153.866395 83.866)
        (xy 153.576423 83.991914) (xy 153.410567 84.324126) (xy 153.31271 84.682312) (xy 153.286611 85.052706) (xy 151.985 85.052706)
        (xy 151.985 84.814344) (xy 151.912561 84.450166) (xy 151.770466 84.107118) (xy 151.564175 83.798382) (xy 151.452188 83.686395)
        (xy 154.046 83.686395) (xy 155.18 84.820395) (xy 156.314 83.686395) (xy 156.188086 83.396423) (xy 155.855874 83.230567)
        (xy 155.497688 83.13271) (xy 155.127294 83.106611) (xy 154.758925 83.153275) (xy 154.406738 83.270906) (xy 154.171914 83.396423)
        (xy 154.046 83.686395) (xy 151.452188 83.686395) (xy 151.301618 83.535825) (xy 150.992882 83.329534) (xy 150.649834 83.187439)
        (xy 150.285656 83.115) (xy 149.914344 83.115) (xy 149.550166 83.187439) (xy 149.207118 83.329534) (xy 148.898382 83.535825)
        (xy 148.635825 83.798382) (xy 148.429534 84.107118) (xy 148.287439 84.450166) (xy 148.215 84.814344) (xy 148.215 85.185656)
        (xy 148.230631 85.264238) (xy 147.23686 86.258009) (xy 147.193552 86.293551) (xy 147.051717 86.466377) (xy 146.995384 86.57177)
        (xy 146.946324 86.663554) (xy 146.881423 86.877502) (xy 146.859509 87.1) (xy 146.865001 87.155761) (xy 146.865 98.130506)
        (xy 146.607144 98.3028) (xy 146.3028 98.607144) (xy 146.063678 98.965015) (xy 145.898969 99.362659) (xy 145.815 99.784796)
        (xy 144.135 99.784796) (xy 144.135 87.490131) (xy 144.755762 86.869369) (xy 144.834344 86.885) (xy 145.205656 86.885)
        (xy 145.569834 86.812561) (xy 145.912882 86.670466) (xy 146.221618 86.464175) (xy 146.484175 86.201618) (xy 146.690466 85.892882)
        (xy 146.832561 85.549834) (xy 146.905 85.185656) (xy 146.905 84.814344) (xy 146.832561 84.450166) (xy 146.690466 84.107118)
        (xy 146.484175 83.798382) (xy 146.221618 83.535825) (xy 145.912882 83.329534) (xy 145.569834 83.187439) (xy 145.205656 83.115)
        (xy 144.834344 83.115) (xy 144.470166 83.187439) (xy 144.127118 83.329534) (xy 143.818382 83.535825) (xy 143.555825 83.798382)
        (xy 143.349534 84.107118) (xy 143.207439 84.450166) (xy 143.135 84.814344) (xy 143.135 85.185656) (xy 143.150631 85.264238)
        (xy 142.23686 86.178009) (xy 142.193552 86.213551) (xy 142.051717 86.386377) (xy 142.008956 86.466378) (xy 141.946324 86.583554)
        (xy 141.881423 86.797502) (xy 141.859509 87.02) (xy 141.865001 87.075762) (xy 141.865 103.130506) (xy 141.607144 103.3028)
        (xy 141.3028 103.607144) (xy 141.063678 103.965015) (xy 140.898969 104.362659) (xy 140.815 104.784796) (xy 137.66 104.784796)
        (xy 137.66 80.032279) (xy 137.67992 79.829117) (xy 138.265 79.829117) (xy 138.265 80.170883) (xy 138.331675 80.506081)
        (xy 138.462463 80.821831) (xy 138.652337 81.105998) (xy 138.894002 81.347663) (xy 139.178169 81.537537) (xy 139.493919 81.668325)
        (xy 139.829117 81.735) (xy 140.170883 81.735) (xy 140.506081 81.668325) (xy 140.821831 81.537537) (xy 141.105998 81.347663)
        (xy 141.347663 81.105998) (xy 141.537537 80.821831) (xy 141.668325 80.506081) (xy 141.735 80.170883) (xy 141.735 79.829117)
        (xy 158.265 79.829117) (xy 158.265 80.170883) (xy 158.331675 80.506081) (xy 158.462463 80.821831) (xy 158.652337 81.105998)
        (xy 158.894002 81.347663) (xy 159.178169 81.537537) (xy 159.493919 81.668325) (xy 159.829117 81.735) (xy 160.170883 81.735)
        (xy 160.506081 81.668325) (xy 160.821831 81.537537) (xy 161.105998 81.347663) (xy 161.347663 81.105998) (xy 161.537537 80.821831)
        (xy 161.668325 80.506081) (xy 161.735 80.170883) (xy 161.735 79.829117) (xy 161.668325 79.493919) (xy 161.537537 79.178169)
        (xy 161.347663 78.894002) (xy 161.105998 78.652337) (xy 160.821831 78.462463) (xy 160.506081 78.331675) (xy 160.170883 78.265)
        (xy 159.829117 78.265) (xy 159.493919 78.331675) (xy 159.178169 78.462463) (xy 158.894002 78.652337) (xy 158.652337 78.894002)
        (xy 158.462463 79.178169) (xy 158.331675 79.493919) (xy 158.265 79.829117) (xy 141.735 79.829117) (xy 141.668325 79.493919)
        (xy 141.537537 79.178169) (xy 141.347663 78.894002) (xy 141.105998 78.652337) (xy 140.821831 78.462463) (xy 140.506081 78.331675)
        (xy 140.170883 78.265) (xy 139.829117 78.265) (xy 139.493919 78.331675) (xy 139.178169 78.462463) (xy 138.894002 78.652337)
        (xy 138.652337 78.894002) (xy 138.462463 79.178169) (xy 138.331675 79.493919) (xy 138.265 79.829117) (xy 137.67992 79.829117)
        (xy 137.70767 79.546107) (xy 137.839489 79.109502) (xy 138.0536 78.706815) (xy 138.341848 78.353388) (xy 138.693261 78.062673)
        (xy 139.094439 77.845758) (xy 139.530113 77.710894) (xy 140.014344 77.66) (xy 159.967721 77.66)
      )
    )
  )
  (zone (net 2) (net_name /GND_D) (layer F.Cu) (tstamp 0) (hatch edge 0.508)
    (connect_pads (clearance 0.508))
    (min_thickness 0.254)
    (fill yes (arc_segments 32) (thermal_gap 0.508) (thermal_bridge_width 0.508))
    (polygon
      (pts
        (xy 196 110) (xy 196 150) (xy 137 150) (xy 137 110)
      )
    )
    (filled_polygon
      (pts
        (xy 165.165867 110.28093) (xy 165.221182 110.303729) (xy 165.276154 110.32729) (xy 165.284957 110.330015) (xy 166.032302 110.555652)
        (xy 166.091011 110.567277) (xy 166.149494 110.579708) (xy 166.158657 110.580671) (xy 166.158659 110.580671) (xy 166.935596 110.65685)
        (xy 166.935598 110.65685) (xy 166.967581 110.66) (xy 192.967721 110.66) (xy 193.453893 110.70767) (xy 193.890498 110.839489)
        (xy 194.293185 111.0536) (xy 194.646612 111.341848) (xy 194.937327 111.693261) (xy 195.154242 112.094439) (xy 195.289106 112.530113)
        (xy 195.340001 113.014353) (xy 195.34 146.967721) (xy 195.29233 147.453894) (xy 195.160512 147.890497) (xy 194.946399 148.293186)
        (xy 194.65815 148.646613) (xy 194.306739 148.937327) (xy 193.905564 149.15424) (xy 193.469886 149.289106) (xy 192.985664 149.34)
        (xy 140.032279 149.34) (xy 139.546106 149.29233) (xy 139.109503 149.160512) (xy 138.706814 148.946399) (xy 138.353387 148.65815)
        (xy 138.062673 148.306739) (xy 137.84576 147.905564) (xy 137.710894 147.469886) (xy 137.66 146.985664) (xy 137.66 146.829117)
        (xy 138.265 146.829117) (xy 138.265 147.170883) (xy 138.331675 147.506081) (xy 138.462463 147.821831) (xy 138.652337 148.105998)
        (xy 138.894002 148.347663) (xy 139.178169 148.537537) (xy 139.493919 148.668325) (xy 139.829117 148.735) (xy 140.170883 148.735)
        (xy 140.506081 148.668325) (xy 140.821831 148.537537) (xy 141.105998 148.347663) (xy 141.347663 148.105998) (xy 141.537537 147.821831)
        (xy 141.668325 147.506081) (xy 141.735 147.170883) (xy 141.735 146.829117) (xy 141.674956 146.527251) (xy 153.652354 146.527251)
        (xy 153.814381 146.84793) (xy 154.197675 147.043725) (xy 154.611803 147.160981) (xy 155.040848 147.195192) (xy 155.468324 147.145042)
        (xy 155.877802 147.012461) (xy 156.185619 146.84793) (xy 156.195124 146.829117) (xy 191.265 146.829117) (xy 191.265 147.170883)
        (xy 191.331675 147.506081) (xy 191.462463 147.821831) (xy 191.652337 148.105998) (xy 191.894002 148.347663) (xy 192.178169 148.537537)
        (xy 192.493919 148.668325) (xy 192.829117 148.735) (xy 193.170883 148.735) (xy 193.506081 148.668325) (xy 193.821831 148.537537)
        (xy 194.105998 148.347663) (xy 194.347663 148.105998) (xy 194.537537 147.821831) (xy 194.668325 147.506081) (xy 194.735 147.170883)
        (xy 194.735 146.829117) (xy 194.668325 146.493919) (xy 194.537537 146.178169) (xy 194.347663 145.894002) (xy 194.105998 145.652337)
        (xy 193.821831 145.462463) (xy 193.506081 145.331675) (xy 193.170883 145.265) (xy 192.829117 145.265) (xy 192.493919 145.331675)
        (xy 192.178169 145.462463) (xy 191.894002 145.652337) (xy 191.652337 145.894002) (xy 191.462463 146.178169) (xy 191.331675 146.493919)
        (xy 191.265 146.829117) (xy 156.195124 146.829117) (xy 156.347646 146.527251) (xy 155 145.179605) (xy 153.652354 146.527251)
        (xy 141.674956 146.527251) (xy 141.668325 146.493919) (xy 141.537537 146.178169) (xy 141.347663 145.894002) (xy 141.105998 145.652337)
        (xy 140.821831 145.462463) (xy 140.506081 145.331675) (xy 140.170883 145.265) (xy 139.829117 145.265) (xy 139.493919 145.331675)
        (xy 139.178169 145.462463) (xy 138.894002 145.652337) (xy 138.652337 145.894002) (xy 138.462463 146.178169) (xy 138.331675 146.493919)
        (xy 138.265 146.829117) (xy 137.66 146.829117) (xy 137.66 145.040848) (xy 152.804808 145.040848) (xy 152.854958 145.468324)
        (xy 152.987539 145.877802) (xy 153.15207 146.185619) (xy 153.472749 146.347646) (xy 154.820395 145) (xy 155.179605 145)
        (xy 156.527251 146.347646) (xy 156.84793 146.185619) (xy 157.043725 145.802325) (xy 157.160981 145.388197) (xy 157.195192 144.959152)
        (xy 157.178117 144.813605) (xy 180.366 144.813605) (xy 180.491914 145.103577) (xy 180.824126 145.269433) (xy 181.182312 145.36729)
        (xy 181.552706 145.393389) (xy 181.921075 145.346725) (xy 182.273262 145.229094) (xy 182.508086 145.103577) (xy 182.634 144.813605)
        (xy 187.366 144.813605) (xy 187.491914 145.103577) (xy 187.824126 145.269433) (xy 188.182312 145.36729) (xy 188.552706 145.393389)
        (xy 188.921075 145.346725) (xy 189.273262 145.229094) (xy 189.508086 145.103577) (xy 189.634 144.813605) (xy 188.5 143.679605)
        (xy 187.366 144.813605) (xy 182.634 144.813605) (xy 181.5 143.679605) (xy 180.366 144.813605) (xy 157.178117 144.813605)
        (xy 157.145042 144.531676) (xy 157.012461 144.122198) (xy 156.84793 143.814381) (xy 156.527251 143.652354) (xy 155.179605 145)
        (xy 154.820395 145) (xy 153.472749 143.652354) (xy 153.15207 143.814381) (xy 152.956275 144.197675) (xy 152.839019 144.611803)
        (xy 152.804808 145.040848) (xy 137.66 145.040848) (xy 137.66 143.472749) (xy 153.652354 143.472749) (xy 155 144.820395)
        (xy 156.267689 143.552706) (xy 179.606611 143.552706) (xy 179.653275 143.921075) (xy 179.770906 144.273262) (xy 179.896423 144.508086)
        (xy 180.186395 144.634) (xy 181.320395 143.5) (xy 181.679605 143.5) (xy 182.813605 144.634) (xy 183.103577 144.508086)
        (xy 183.269433 144.175874) (xy 183.36729 143.817688) (xy 183.385961 143.552706) (xy 186.606611 143.552706) (xy 186.653275 143.921075)
        (xy 186.770906 144.273262) (xy 186.896423 144.508086) (xy 187.186395 144.634) (xy 188.320395 143.5) (xy 188.679605 143.5)
        (xy 189.813605 144.634) (xy 190.103577 144.508086) (xy 190.269433 144.175874) (xy 190.36729 143.817688) (xy 190.393389 143.447294)
        (xy 190.346725 143.078925) (xy 190.229094 142.726738) (xy 190.103577 142.491914) (xy 189.813605 142.366) (xy 188.679605 143.5)
        (xy 188.320395 143.5) (xy 187.186395 142.366) (xy 186.896423 142.491914) (xy 186.730567 142.824126) (xy 186.63271 143.182312)
        (xy 186.606611 143.552706) (xy 183.385961 143.552706) (xy 183.393389 143.447294) (xy 183.346725 143.078925) (xy 183.229094 142.726738)
        (xy 183.103577 142.491914) (xy 182.813605 142.366) (xy 181.679605 143.5) (xy 181.320395 143.5) (xy 180.186395 142.366)
        (xy 179.896423 142.491914) (xy 179.730567 142.824126) (xy 179.63271 143.182312) (xy 179.606611 143.552706) (xy 156.267689 143.552706)
        (xy 156.347646 143.472749) (xy 156.185619 143.15207) (xy 155.802325 142.956275) (xy 155.388197 142.839019) (xy 154.959152 142.804808)
        (xy 154.531676 142.854958) (xy 154.122198 142.987539) (xy 153.814381 143.15207) (xy 153.652354 143.472749) (xy 137.66 143.472749)
        (xy 137.66 141.527251) (xy 158.652354 141.527251) (xy 158.814381 141.84793) (xy 159.197675 142.043725) (xy 159.611803 142.160981)
        (xy 160.040848 142.195192) (xy 160.115833 142.186395) (xy 180.366 142.186395) (xy 181.5 143.320395) (xy 182.634 142.186395)
        (xy 187.366 142.186395) (xy 188.5 143.320395) (xy 189.634 142.186395) (xy 189.508086 141.896423) (xy 189.175874 141.730567)
        (xy 188.817688 141.63271) (xy 188.447294 141.606611) (xy 188.078925 141.653275) (xy 187.726738 141.770906) (xy 187.491914 141.896423)
        (xy 187.366 142.186395) (xy 182.634 142.186395) (xy 182.508086 141.896423) (xy 182.175874 141.730567) (xy 181.817688 141.63271)
        (xy 181.447294 141.606611) (xy 181.078925 141.653275) (xy 180.726738 141.770906) (xy 180.491914 141.896423) (xy 180.366 142.186395)
        (xy 160.115833 142.186395) (xy 160.468324 142.145042) (xy 160.877802 142.012461) (xy 161.185619 141.84793) (xy 161.347646 141.527251)
        (xy 160 140.179605) (xy 158.652354 141.527251) (xy 137.66 141.527251) (xy 137.66 140.040848) (xy 157.804808 140.040848)
        (xy 157.854958 140.468324) (xy 157.987539 140.877802) (xy 158.15207 141.185619) (xy 158.472749 141.347646) (xy 159.820395 140)
        (xy 160.179605 140) (xy 161.527251 141.347646) (xy 161.84793 141.185619) (xy 162.043725 140.802325) (xy 162.160981 140.388197)
        (xy 162.195192 139.959152) (xy 162.178117 139.813605) (xy 180.366 139.813605) (xy 180.491914 140.103577) (xy 180.824126 140.269433)
        (xy 181.182312 140.36729) (xy 181.552706 140.393389) (xy 181.921075 140.346725) (xy 182.273262 140.229094) (xy 182.508086 140.103577)
        (xy 182.634 139.813605) (xy 187.366 139.813605) (xy 187.491914 140.103577) (xy 187.824126 140.269433) (xy 188.182312 140.36729)
        (xy 188.552706 140.393389) (xy 188.921075 140.346725) (xy 189.273262 140.229094) (xy 189.508086 140.103577) (xy 189.634 139.813605)
        (xy 188.5 138.679605) (xy 187.366 139.813605) (xy 182.634 139.813605) (xy 181.5 138.679605) (xy 180.366 139.813605)
        (xy 162.178117 139.813605) (xy 162.145042 139.531676) (xy 162.012461 139.122198) (xy 161.84793 138.814381) (xy 161.527251 138.652354)
        (xy 160.179605 140) (xy 159.820395 140) (xy 158.472749 138.652354) (xy 158.15207 138.814381) (xy 157.956275 139.197675)
        (xy 157.839019 139.611803) (xy 157.804808 140.040848) (xy 137.66 140.040848) (xy 137.66 138.472749) (xy 158.652354 138.472749)
        (xy 160 139.820395) (xy 161.267689 138.552706) (xy 179.606611 138.552706) (xy 179.653275 138.921075) (xy 179.770906 139.273262)
        (xy 179.896423 139.508086) (xy 180.186395 139.634) (xy 181.320395 138.5) (xy 181.679605 138.5) (xy 182.813605 139.634)
        (xy 183.103577 139.508086) (xy 183.269433 139.175874) (xy 183.36729 138.817688) (xy 183.385961 138.552706) (xy 186.606611 138.552706)
        (xy 186.653275 138.921075) (xy 186.770906 139.273262) (xy 186.896423 139.508086) (xy 187.186395 139.634) (xy 188.320395 138.5)
        (xy 188.679605 138.5) (xy 189.813605 139.634) (xy 190.103577 139.508086) (xy 190.269433 139.175874) (xy 190.36729 138.817688)
        (xy 190.393389 138.447294) (xy 190.346725 138.078925) (xy 190.229094 137.726738) (xy 190.103577 137.491914) (xy 189.813605 137.366)
        (xy 188.679605 138.5) (xy 188.320395 138.5) (xy 187.186395 137.366) (xy 186.896423 137.491914) (xy 186.730567 137.824126)
        (xy 186.63271 138.182312) (xy 186.606611 138.552706) (xy 183.385961 138.552706) (xy 183.393389 138.447294) (xy 183.346725 138.078925)
        (xy 183.229094 137.726738) (xy 183.103577 137.491914) (xy 182.813605 137.366) (xy 181.679605 138.5) (xy 181.320395 138.5)
        (xy 180.186395 137.366) (xy 179.896423 137.491914) (xy 179.730567 137.824126) (xy 179.63271 138.182312) (xy 179.606611 138.552706)
        (xy 161.267689 138.552706) (xy 161.347646 138.472749) (xy 161.185619 138.15207) (xy 160.802325 137.956275) (xy 160.388197 137.839019)
        (xy 159.959152 137.804808) (xy 159.531676 137.854958) (xy 159.122198 137.987539) (xy 158.814381 138.15207) (xy 158.652354 138.472749)
        (xy 137.66 138.472749) (xy 137.66 136.527251) (xy 163.652354 136.527251) (xy 163.814381 136.84793) (xy 164.197675 137.043725)
        (xy 164.611803 137.160981) (xy 165.040848 137.195192) (xy 165.115833 137.186395) (xy 180.366 137.186395) (xy 181.5 138.320395)
        (xy 182.634 137.186395) (xy 187.366 137.186395) (xy 188.5 138.320395) (xy 189.634 137.186395) (xy 189.508086 136.896423)
        (xy 189.175874 136.730567) (xy 188.817688 136.63271) (xy 188.447294 136.606611) (xy 188.078925 136.653275) (xy 187.726738 136.770906)
        (xy 187.491914 136.896423) (xy 187.366 137.186395) (xy 182.634 137.186395) (xy 182.508086 136.896423) (xy 182.175874 136.730567)
        (xy 181.817688 136.63271) (xy 181.447294 136.606611) (xy 181.078925 136.653275) (xy 180.726738 136.770906) (xy 180.491914 136.896423)
        (xy 180.366 137.186395) (xy 165.115833 137.186395) (xy 165.468324 137.145042) (xy 165.877802 137.012461) (xy 166.185619 136.84793)
        (xy 166.347646 136.527251) (xy 165 135.179605) (xy 163.652354 136.527251) (xy 137.66 136.527251) (xy 137.66 135.040848)
        (xy 162.804808 135.040848) (xy 162.854958 135.468324) (xy 162.987539 135.877802) (xy 163.15207 136.185619) (xy 163.472749 136.347646)
        (xy 164.820395 135) (xy 165.179605 135) (xy 166.527251 136.347646) (xy 166.84793 136.185619) (xy 167.043725 135.802325)
        (xy 167.160981 135.388197) (xy 167.195192 134.959152) (xy 167.145042 134.531676) (xy 167.012461 134.122198) (xy 166.84793 133.814381)
        (xy 166.527251 133.652354) (xy 165.179605 135) (xy 164.820395 135) (xy 163.472749 133.652354) (xy 163.15207 133.814381)
        (xy 162.956275 134.197675) (xy 162.839019 134.611803) (xy 162.804808 135.040848) (xy 137.66 135.040848) (xy 137.66 133.472749)
        (xy 163.652354 133.472749) (xy 165 134.820395) (xy 166.347646 133.472749) (xy 166.185619 133.15207) (xy 165.802325 132.956275)
        (xy 165.388197 132.839019) (xy 164.959152 132.804808) (xy 164.531676 132.854958) (xy 164.122198 132.987539) (xy 163.814381 133.15207)
        (xy 163.652354 133.472749) (xy 137.66 133.472749) (xy 137.66 117.784796) (xy 152.815 117.784796) (xy 152.815 118.215204)
        (xy 152.898969 118.637341) (xy 153.063678 119.034985) (xy 153.3028 119.392856) (xy 153.607144 119.6972) (xy 153.965015 119.936322)
        (xy 154.362659 120.101031) (xy 154.784796 120.185) (xy 155.215204 120.185) (xy 155.519367 120.124498) (xy 157.875502 122.480634)
        (xy 157.815 122.784796) (xy 157.815 123.215204) (xy 157.898969 123.637341) (xy 158.063678 124.034985) (xy 158.3028 124.392856)
        (xy 158.607144 124.6972) (xy 158.965015 124.936322) (xy 159.362659 125.101031) (xy 159.784796 125.185) (xy 160.215204 125.185)
        (xy 160.519367 125.124498) (xy 162.875502 127.480634) (xy 162.815 127.784796) (xy 162.815 128.215204) (xy 162.898969 128.637341)
        (xy 163.063678 129.034985) (xy 163.3028 129.392856) (xy 163.607144 129.6972) (xy 163.965015 129.936322) (xy 164.362659 130.101031)
        (xy 164.784796 130.185) (xy 165.215204 130.185) (xy 165.519366 130.124498) (xy 168.658009 133.263141) (xy 168.693551 133.306449)
        (xy 168.866377 133.448284) (xy 169.063553 133.553676) (xy 169.277501 133.618577) (xy 169.499999 133.640491) (xy 169.555751 133.635)
        (xy 179.991312 133.635) (xy 180.035825 133.701618) (xy 180.298382 133.964175) (xy 180.607118 134.170466) (xy 180.950166 134.312561)
        (xy 181.314344 134.385) (xy 181.685656 134.385) (xy 182.049834 134.312561) (xy 182.392882 134.170466) (xy 182.701618 133.964175)
        (xy 182.964175 133.701618) (xy 183.008688 133.635) (xy 186.991312 133.635) (xy 187.035825 133.701618) (xy 187.298382 133.964175)
        (xy 187.607118 134.170466) (xy 187.950166 134.312561) (xy 188.314344 134.385) (xy 188.685656 134.385) (xy 189.049834 134.312561)
        (xy 189.392882 134.170466) (xy 189.701618 133.964175) (xy 189.964175 133.701618) (xy 190.170466 133.392882) (xy 190.312561 133.049834)
        (xy 190.385 132.685656) (xy 190.385 132.314344) (xy 190.312561 131.950166) (xy 190.170466 131.607118) (xy 189.964175 131.298382)
        (xy 189.701618 131.035825) (xy 189.392882 130.829534) (xy 189.049834 130.687439) (xy 188.685656 130.615) (xy 188.314344 130.615)
        (xy 187.950166 130.687439) (xy 187.607118 130.829534) (xy 187.298382 131.035825) (xy 187.035825 131.298382) (xy 186.991312 131.365)
        (xy 183.008688 131.365) (xy 182.964175 131.298382) (xy 182.701618 131.035825) (xy 182.635 130.991312) (xy 182.635 129.008688)
        (xy 182.701618 128.964175) (xy 182.964175 128.701618) (xy 183.008688 128.635) (xy 186.991312 128.635) (xy 187.035825 128.701618)
        (xy 187.298382 128.964175) (xy 187.607118 129.170466) (xy 187.950166 129.312561) (xy 188.314344 129.385) (xy 188.685656 129.385)
        (xy 189.049834 129.312561) (xy 189.392882 129.170466) (xy 189.701618 128.964175) (xy 189.964175 128.701618) (xy 190.170466 128.392882)
        (xy 190.312561 128.049834) (xy 190.385 127.685656) (xy 190.385 127.314344) (xy 190.312561 126.950166) (xy 190.170466 126.607118)
        (xy 189.964175 126.298382) (xy 189.701618 126.035825) (xy 189.392882 125.829534) (xy 189.049834 125.687439) (xy 188.685656 125.615)
        (xy 188.314344 125.615) (xy 187.950166 125.687439) (xy 187.607118 125.829534) (xy 187.298382 126.035825) (xy 187.035825 126.298382)
        (xy 186.991312 126.365) (xy 183.008688 126.365) (xy 182.964175 126.298382) (xy 182.701618 126.035825) (xy 182.392882 125.829534)
        (xy 182.049834 125.687439) (xy 181.685656 125.615) (xy 181.314344 125.615) (xy 180.950166 125.687439) (xy 180.607118 125.829534)
        (xy 180.298382 126.035825) (xy 180.035825 126.298382) (xy 179.829534 126.607118) (xy 179.687439 126.950166) (xy 179.615 127.314344)
        (xy 179.615 127.685656) (xy 179.687439 128.049834) (xy 179.829534 128.392882) (xy 180.035825 128.701618) (xy 180.298382 128.964175)
        (xy 180.365 129.008688) (xy 180.365001 130.991312) (xy 180.298382 131.035825) (xy 180.035825 131.298382) (xy 179.991312 131.365)
        (xy 169.970132 131.365) (xy 167.124498 128.519366) (xy 167.134115 128.471016) (xy 171.235763 124.369369) (xy 171.314344 124.385)
        (xy 171.685656 124.385) (xy 172.049834 124.312561) (xy 172.392882 124.170466) (xy 172.701618 123.964175) (xy 172.964175 123.701618)
        (xy 173.008688 123.635) (xy 174.991312 123.635) (xy 175.035825 123.701618) (xy 175.298382 123.964175) (xy 175.607118 124.170466)
        (xy 175.950166 124.312561) (xy 176.314344 124.385) (xy 176.685656 124.385) (xy 177.049834 124.312561) (xy 177.392882 124.170466)
        (xy 177.701618 123.964175) (xy 177.852188 123.813605) (xy 181.366 123.813605) (xy 181.491914 124.103577) (xy 181.824126 124.269433)
        (xy 182.182312 124.36729) (xy 182.552706 124.393389) (xy 182.921075 124.346725) (xy 183.273262 124.229094) (xy 183.508086 124.103577)
        (xy 183.634 123.813605) (xy 186.366 123.813605) (xy 186.491914 124.103577) (xy 186.824126 124.269433) (xy 187.182312 124.36729)
        (xy 187.552706 124.393389) (xy 187.921075 124.346725) (xy 188.273262 124.229094) (xy 188.508086 124.103577) (xy 188.634 123.813605)
        (xy 187.5 122.679605) (xy 186.366 123.813605) (xy 183.634 123.813605) (xy 182.5 122.679605) (xy 181.366 123.813605)
        (xy 177.852188 123.813605) (xy 177.964175 123.701618) (xy 178.170466 123.392882) (xy 178.312561 123.049834) (xy 178.385 122.685656)
        (xy 178.385 122.552706) (xy 180.606611 122.552706) (xy 180.653275 122.921075) (xy 180.770906 123.273262) (xy 180.896423 123.508086)
        (xy 181.186395 123.634) (xy 182.320395 122.5) (xy 182.679605 122.5) (xy 183.813605 123.634) (xy 184.103577 123.508086)
        (xy 184.269433 123.175874) (xy 184.36729 122.817688) (xy 184.385961 122.552706) (xy 185.606611 122.552706) (xy 185.653275 122.921075)
        (xy 185.770906 123.273262) (xy 185.896423 123.508086) (xy 186.186395 123.634) (xy 187.320395 122.5) (xy 187.679605 122.5)
        (xy 188.813605 123.634) (xy 189.103577 123.508086) (xy 189.269433 123.175874) (xy 189.36729 122.817688) (xy 189.393389 122.447294)
        (xy 189.346725 122.078925) (xy 189.229094 121.726738) (xy 189.103577 121.491914) (xy 188.813605 121.366) (xy 187.679605 122.5)
        (xy 187.320395 122.5) (xy 186.186395 121.366) (xy 185.896423 121.491914) (xy 185.730567 121.824126) (xy 185.63271 122.182312)
        (xy 185.606611 122.552706) (xy 184.385961 122.552706) (xy 184.393389 122.447294) (xy 184.346725 122.078925) (xy 184.229094 121.726738)
        (xy 184.103577 121.491914) (xy 183.813605 121.366) (xy 182.679605 122.5) (xy 182.320395 122.5) (xy 181.186395 121.366)
        (xy 180.896423 121.491914) (xy 180.730567 121.824126) (xy 180.63271 122.182312) (xy 180.606611 122.552706) (xy 178.385 122.552706)
        (xy 178.385 122.314344) (xy 178.312561 121.950166) (xy 178.170466 121.607118) (xy 177.964175 121.298382) (xy 177.852188 121.186395)
        (xy 181.366 121.186395) (xy 182.5 122.320395) (xy 183.634 121.186395) (xy 186.366 121.186395) (xy 187.5 122.320395)
        (xy 188.634 121.186395) (xy 188.508086 120.896423) (xy 188.175874 120.730567) (xy 187.817688 120.63271) (xy 187.447294 120.606611)
        (xy 187.078925 120.653275) (xy 186.726738 120.770906) (xy 186.491914 120.896423) (xy 186.366 121.186395) (xy 183.634 121.186395)
        (xy 183.508086 120.896423) (xy 183.175874 120.730567) (xy 182.817688 120.63271) (xy 182.447294 120.606611) (xy 182.078925 120.653275)
        (xy 181.726738 120.770906) (xy 181.491914 120.896423) (xy 181.366 121.186395) (xy 177.852188 121.186395) (xy 177.701618 121.035825)
        (xy 177.635 120.991312) (xy 177.635 117.008688) (xy 177.701618 116.964175) (xy 177.852188 116.813605) (xy 181.366 116.813605)
        (xy 181.491914 117.103577) (xy 181.824126 117.269433) (xy 182.182312 117.36729) (xy 182.552706 117.393389) (xy 182.921075 117.346725)
        (xy 183.273262 117.229094) (xy 183.508086 117.103577) (xy 183.634 116.813605) (xy 186.366 116.813605) (xy 186.491914 117.103577)
        (xy 186.824126 117.269433) (xy 187.182312 117.36729) (xy 187.552706 117.393389) (xy 187.921075 117.346725) (xy 188.273262 117.229094)
        (xy 188.508086 117.103577) (xy 188.634 116.813605) (xy 187.5 115.679605) (xy 186.366 116.813605) (xy 183.634 116.813605)
        (xy 182.5 115.679605) (xy 181.366 116.813605) (xy 177.852188 116.813605) (xy 177.964175 116.701618) (xy 178.170466 116.392882)
        (xy 178.312561 116.049834) (xy 178.385 115.685656) (xy 178.385 115.552706) (xy 180.606611 115.552706) (xy 180.653275 115.921075)
        (xy 180.770906 116.273262) (xy 180.896423 116.508086) (xy 181.186395 116.634) (xy 182.320395 115.5) (xy 182.679605 115.5)
        (xy 183.813605 116.634) (xy 184.103577 116.508086) (xy 184.269433 116.175874) (xy 184.36729 115.817688) (xy 184.385961 115.552706)
        (xy 185.606611 115.552706) (xy 185.653275 115.921075) (xy 185.770906 116.273262) (xy 185.896423 116.508086) (xy 186.186395 116.634)
        (xy 187.320395 115.5) (xy 187.679605 115.5) (xy 188.813605 116.634) (xy 189.103577 116.508086) (xy 189.269433 116.175874)
        (xy 189.36729 115.817688) (xy 189.393389 115.447294) (xy 189.346725 115.078925) (xy 189.229094 114.726738) (xy 189.103577 114.491914)
        (xy 188.813605 114.366) (xy 187.679605 115.5) (xy 187.320395 115.5) (xy 186.186395 114.366) (xy 185.896423 114.491914)
        (xy 185.730567 114.824126) (xy 185.63271 115.182312) (xy 185.606611 115.552706) (xy 184.385961 115.552706) (xy 184.393389 115.447294)
        (xy 184.346725 115.078925) (xy 184.229094 114.726738) (xy 184.103577 114.491914) (xy 183.813605 114.366) (xy 182.679605 115.5)
        (xy 182.320395 115.5) (xy 181.186395 114.366) (xy 180.896423 114.491914) (xy 180.730567 114.824126) (xy 180.63271 115.182312)
        (xy 180.606611 115.552706) (xy 178.385 115.552706) (xy 178.385 115.314344) (xy 178.312561 114.950166) (xy 178.170466 114.607118)
        (xy 177.964175 114.298382) (xy 177.852188 114.186395) (xy 181.366 114.186395) (xy 182.5 115.320395) (xy 183.634 114.186395)
        (xy 186.366 114.186395) (xy 187.5 115.320395) (xy 188.634 114.186395) (xy 188.508086 113.896423) (xy 188.175874 113.730567)
        (xy 187.817688 113.63271) (xy 187.447294 113.606611) (xy 187.078925 113.653275) (xy 186.726738 113.770906) (xy 186.491914 113.896423)
        (xy 186.366 114.186395) (xy 183.634 114.186395) (xy 183.508086 113.896423) (xy 183.175874 113.730567) (xy 182.817688 113.63271)
        (xy 182.447294 113.606611) (xy 182.078925 113.653275) (xy 181.726738 113.770906) (xy 181.491914 113.896423) (xy 181.366 114.186395)
        (xy 177.852188 114.186395) (xy 177.701618 114.035825) (xy 177.392882 113.829534) (xy 177.049834 113.687439) (xy 176.685656 113.615)
        (xy 176.314344 113.615) (xy 175.950166 113.687439) (xy 175.607118 113.829534) (xy 175.298382 114.035825) (xy 175.035825 114.298382)
        (xy 174.829534 114.607118) (xy 174.687439 114.950166) (xy 174.615 115.314344) (xy 174.615 115.685656) (xy 174.687439 116.049834)
        (xy 174.829534 116.392882) (xy 175.035825 116.701618) (xy 175.298382 116.964175) (xy 175.365001 117.008688) (xy 175.365 120.991312)
        (xy 175.298382 121.035825) (xy 175.035825 121.298382) (xy 174.991312 121.365) (xy 173.008688 121.365) (xy 172.964175 121.298382)
        (xy 172.701618 121.035825) (xy 172.635 120.991312) (xy 172.635 117.008688) (xy 172.701618 116.964175) (xy 172.964175 116.701618)
        (xy 173.170466 116.392882) (xy 173.312561 116.049834) (xy 173.385 115.685656) (xy 173.385 115.314344) (xy 173.312561 114.950166)
        (xy 173.170466 114.607118) (xy 172.964175 114.298382) (xy 172.701618 114.035825) (xy 172.392882 113.829534) (xy 172.049834 113.687439)
        (xy 171.685656 113.615) (xy 171.314344 113.615) (xy 170.950166 113.687439) (xy 170.607118 113.829534) (xy 170.298382 114.035825)
        (xy 170.035825 114.298382) (xy 169.829534 114.607118) (xy 169.687439 114.950166) (xy 169.615 115.314344) (xy 169.615 115.685656)
        (xy 169.687439 116.049834) (xy 169.829534 116.392882) (xy 170.035825 116.701618) (xy 170.298382 116.964175) (xy 170.365001 117.008688)
        (xy 170.365 120.991312) (xy 170.298382 121.035825) (xy 170.035825 121.298382) (xy 169.829534 121.607118) (xy 169.687439 121.950166)
        (xy 169.615 122.314344) (xy 169.615 122.685656) (xy 169.630631 122.764237) (xy 166.212547 126.182321) (xy 166.034985 126.063678)
        (xy 165.637341 125.898969) (xy 165.215204 125.815) (xy 164.784796 125.815) (xy 164.480634 125.875502) (xy 162.124498 123.519367)
        (xy 162.185 123.215204) (xy 162.185 122.784796) (xy 162.101031 122.362659) (xy 161.936322 121.965015) (xy 161.6972 121.607144)
        (xy 161.392856 121.3028) (xy 161.034985 121.063678) (xy 160.637341 120.898969) (xy 160.215204 120.815) (xy 159.784796 120.815)
        (xy 159.480634 120.875502) (xy 157.124498 118.519367) (xy 157.185 118.215204) (xy 157.185 117.784796) (xy 157.101031 117.362659)
        (xy 156.936322 116.965015) (xy 156.6972 116.607144) (xy 156.392856 116.3028) (xy 156.034985 116.063678) (xy 155.637341 115.898969)
        (xy 155.215204 115.815) (xy 154.784796 115.815) (xy 154.362659 115.898969) (xy 153.965015 116.063678) (xy 153.607144 116.3028)
        (xy 153.3028 116.607144) (xy 153.063678 116.965015) (xy 152.898969 117.362659) (xy 152.815 117.784796) (xy 137.66 117.784796)
        (xy 137.66 112.829117) (xy 158.265 112.829117) (xy 158.265 113.170883) (xy 158.331675 113.506081) (xy 158.462463 113.821831)
        (xy 158.652337 114.105998) (xy 158.894002 114.347663) (xy 159.178169 114.537537) (xy 159.493919 114.668325) (xy 159.829117 114.735)
        (xy 160.170883 114.735) (xy 160.506081 114.668325) (xy 160.821831 114.537537) (xy 161.105998 114.347663) (xy 161.347663 114.105998)
        (xy 161.537537 113.821831) (xy 161.668325 113.506081) (xy 161.735 113.170883) (xy 161.735 112.829117) (xy 191.265 112.829117)
        (xy 191.265 113.170883) (xy 191.331675 113.506081) (xy 191.462463 113.821831) (xy 191.652337 114.105998) (xy 191.894002 114.347663)
        (xy 192.178169 114.537537) (xy 192.493919 114.668325) (xy 192.829117 114.735) (xy 193.170883 114.735) (xy 193.506081 114.668325)
        (xy 193.821831 114.537537) (xy 194.105998 114.347663) (xy 194.347663 114.105998) (xy 194.537537 113.821831) (xy 194.668325 113.506081)
        (xy 194.735 113.170883) (xy 194.735 112.829117) (xy 194.668325 112.493919) (xy 194.537537 112.178169) (xy 194.347663 111.894002)
        (xy 194.105998 111.652337) (xy 193.821831 111.462463) (xy 193.506081 111.331675) (xy 193.170883 111.265) (xy 192.829117 111.265)
        (xy 192.493919 111.331675) (xy 192.178169 111.462463) (xy 191.894002 111.652337) (xy 191.652337 111.894002) (xy 191.462463 112.178169)
        (xy 191.331675 112.493919) (xy 191.265 112.829117) (xy 161.735 112.829117) (xy 161.668325 112.493919) (xy 161.537537 112.178169)
        (xy 161.347663 111.894002) (xy 161.105998 111.652337) (xy 160.821831 111.462463) (xy 160.506081 111.331675) (xy 160.170883 111.265)
        (xy 159.829117 111.265) (xy 159.493919 111.331675) (xy 159.178169 111.462463) (xy 158.894002 111.652337) (xy 158.652337 111.894002)
        (xy 158.462463 112.178169) (xy 158.331675 112.493919) (xy 158.265 112.829117) (xy 137.66 112.829117) (xy 137.66 110.127)
        (xy 164.876368 110.127)
      )
    )
  )
)
